{
  "author":{
    "name":"Felipe Pinheiro Silva",
    "email":"felipefoz@gmail.com",
    "url":"https://felipekb.com"
  },
  "labviewVersion":"2020",
  "license":"BSD",
  "dependencies":[
    {
      "provider":"Gitlab Tools",
      "type":"gitlab-v4",
      "url":"https://gitlab.com/felipe_public/gitlab-tools-labview",
      "packages":{"cicd-tools.lvlib":"0.2.1"}
    }
  ]
}